ISO-10303-21;
HEADER;
/* Generated by software containing ST-Developer
 * from STEP Tools, Inc. (www.steptools.com) 
 */

FILE_DESCRIPTION(
/* description */ (''),
/* implementation_level */ '2;1');

FILE_NAME(
/* name */ 'Atari 800 Power LED Cover v3.step',
/* time_stamp */ '2023-06-27T09:08:44+02:00',
/* author */ (''),
/* organization */ (''),
/* preprocessor_version */ 'ST-DEVELOPER v19.2',
/* originating_system */ 'Autodesk Translation Framework v12.6.0.85',
/* authorisation */ '');

FILE_SCHEMA (('AUTOMOTIVE_DESIGN { 1 0 10303 214 3 1 1 }'));
ENDSEC;

DATA;
#10=MECHANICAL_DESIGN_GEOMETRIC_PRESENTATION_REPRESENTATION('',(#13),#985);
#11=SHAPE_REPRESENTATION_RELATIONSHIP('SRR','None',#992,#12);
#12=ADVANCED_BREP_SHAPE_REPRESENTATION('',(#14),#984);
#13=STYLED_ITEM('',(#1001),#14);
#14=MANIFOLD_SOLID_BREP('K\X\F6rper1',#589);
#15=FACE_BOUND('',#89,.T.);
#16=FACE_BOUND('',#106,.T.);
#17=FACE_BOUND('',#110,.T.);
#18=CIRCLE('',#610,0.200000000000001);
#19=CIRCLE('',#611,0.200000000000001);
#20=CIRCLE('',#614,0.199999999999999);
#21=CIRCLE('',#615,0.199999999999999);
#22=CIRCLE('',#618,0.199999999999999);
#23=CIRCLE('',#619,0.199999999999999);
#24=CIRCLE('',#622,0.199999999999999);
#25=CIRCLE('',#623,0.199999999999999);
#26=CIRCLE('',#634,1.);
#27=CIRCLE('',#635,1.);
#28=CIRCLE('',#638,0.999999999999999);
#29=CIRCLE('',#639,0.999999999999999);
#30=CIRCLE('',#642,0.999999999999999);
#31=CIRCLE('',#643,0.999999999999999);
#32=CIRCLE('',#646,0.999999999999999);
#33=CIRCLE('',#647,0.999999999999999);
#34=CYLINDRICAL_SURFACE('',#609,0.200000000000001);
#35=CYLINDRICAL_SURFACE('',#613,0.199999999999999);
#36=CYLINDRICAL_SURFACE('',#617,0.199999999999999);
#37=CYLINDRICAL_SURFACE('',#621,0.199999999999999);
#38=CYLINDRICAL_SURFACE('',#633,1.);
#39=CYLINDRICAL_SURFACE('',#637,0.999999999999999);
#40=CYLINDRICAL_SURFACE('',#641,0.999999999999999);
#41=CYLINDRICAL_SURFACE('',#645,0.999999999999999);
#42=FACE_OUTER_BOUND('',#75,.T.);
#43=FACE_OUTER_BOUND('',#76,.T.);
#44=FACE_OUTER_BOUND('',#77,.T.);
#45=FACE_OUTER_BOUND('',#78,.T.);
#46=FACE_OUTER_BOUND('',#79,.T.);
#47=FACE_OUTER_BOUND('',#80,.T.);
#48=FACE_OUTER_BOUND('',#81,.T.);
#49=FACE_OUTER_BOUND('',#82,.T.);
#50=FACE_OUTER_BOUND('',#83,.T.);
#51=FACE_OUTER_BOUND('',#84,.T.);
#52=FACE_OUTER_BOUND('',#85,.T.);
#53=FACE_OUTER_BOUND('',#86,.T.);
#54=FACE_OUTER_BOUND('',#87,.T.);
#55=FACE_OUTER_BOUND('',#88,.T.);
#56=FACE_OUTER_BOUND('',#90,.T.);
#57=FACE_OUTER_BOUND('',#91,.T.);
#58=FACE_OUTER_BOUND('',#92,.T.);
#59=FACE_OUTER_BOUND('',#93,.T.);
#60=FACE_OUTER_BOUND('',#94,.T.);
#61=FACE_OUTER_BOUND('',#95,.T.);
#62=FACE_OUTER_BOUND('',#96,.T.);
#63=FACE_OUTER_BOUND('',#97,.T.);
#64=FACE_OUTER_BOUND('',#98,.T.);
#65=FACE_OUTER_BOUND('',#99,.T.);
#66=FACE_OUTER_BOUND('',#100,.T.);
#67=FACE_OUTER_BOUND('',#101,.T.);
#68=FACE_OUTER_BOUND('',#102,.T.);
#69=FACE_OUTER_BOUND('',#103,.T.);
#70=FACE_OUTER_BOUND('',#104,.T.);
#71=FACE_OUTER_BOUND('',#105,.T.);
#72=FACE_OUTER_BOUND('',#107,.T.);
#73=FACE_OUTER_BOUND('',#108,.T.);
#74=FACE_OUTER_BOUND('',#109,.T.);
#75=EDGE_LOOP('',(#371,#372,#373,#374));
#76=EDGE_LOOP('',(#375,#376,#377,#378));
#77=EDGE_LOOP('',(#379,#380,#381,#382));
#78=EDGE_LOOP('',(#383,#384,#385,#386));
#79=EDGE_LOOP('',(#387,#388,#389,#390));
#80=EDGE_LOOP('',(#391,#392,#393,#394));
#81=EDGE_LOOP('',(#395,#396,#397,#398));
#82=EDGE_LOOP('',(#399,#400,#401,#402));
#83=EDGE_LOOP('',(#403,#404,#405,#406));
#84=EDGE_LOOP('',(#407,#408,#409,#410));
#85=EDGE_LOOP('',(#411,#412,#413,#414));
#86=EDGE_LOOP('',(#415,#416,#417,#418));
#87=EDGE_LOOP('',(#419,#420,#421,#422));
#88=EDGE_LOOP('',(#423,#424,#425,#426,#427,#428,#429,#430));
#89=EDGE_LOOP('',(#431,#432,#433,#434));
#90=EDGE_LOOP('',(#435,#436,#437,#438));
#91=EDGE_LOOP('',(#439,#440,#441,#442));
#92=EDGE_LOOP('',(#443,#444,#445,#446));
#93=EDGE_LOOP('',(#447,#448,#449,#450));
#94=EDGE_LOOP('',(#451,#452,#453,#454));
#95=EDGE_LOOP('',(#455,#456,#457,#458));
#96=EDGE_LOOP('',(#459,#460,#461,#462));
#97=EDGE_LOOP('',(#463,#464,#465,#466));
#98=EDGE_LOOP('',(#467,#468,#469,#470));
#99=EDGE_LOOP('',(#471,#472,#473,#474));
#100=EDGE_LOOP('',(#475,#476,#477,#478));
#101=EDGE_LOOP('',(#479,#480,#481,#482));
#102=EDGE_LOOP('',(#483,#484,#485,#486));
#103=EDGE_LOOP('',(#487,#488,#489,#490));
#104=EDGE_LOOP('',(#491,#492,#493,#494));
#105=EDGE_LOOP('',(#495,#496,#497,#498,#499,#500,#501,#502));
#106=EDGE_LOOP('',(#503,#504,#505,#506));
#107=EDGE_LOOP('',(#507,#508,#509,#510));
#108=EDGE_LOOP('',(#511,#512,#513,#514));
#109=EDGE_LOOP('',(#515,#516,#517,#518,#519,#520,#521,#522));
#110=EDGE_LOOP('',(#523,#524,#525,#526,#527,#528,#529,#530));
#111=LINE('',#820,#175);
#112=LINE('',#822,#176);
#113=LINE('',#824,#177);
#114=LINE('',#825,#178);
#115=LINE('',#828,#179);
#116=LINE('',#830,#180);
#117=LINE('',#831,#181);
#118=LINE('',#834,#182);
#119=LINE('',#836,#183);
#120=LINE('',#837,#184);
#121=LINE('',#839,#185);
#122=LINE('',#840,#186);
#123=LINE('',#845,#187);
#124=LINE('',#847,#188);
#125=LINE('',#849,#189);
#126=LINE('',#850,#190);
#127=LINE('',#855,#191);
#128=LINE('',#859,#192);
#129=LINE('',#861,#193);
#130=LINE('',#862,#194);
#131=LINE('',#867,#195);
#132=LINE('',#871,#196);
#133=LINE('',#873,#197);
#134=LINE('',#874,#198);
#135=LINE('',#879,#199);
#136=LINE('',#883,#200);
#137=LINE('',#885,#201);
#138=LINE('',#886,#202);
#139=LINE('',#894,#203);
#140=LINE('',#896,#204);
#141=LINE('',#898,#205);
#142=LINE('',#899,#206);
#143=LINE('',#902,#207);
#144=LINE('',#904,#208);
#145=LINE('',#905,#209);
#146=LINE('',#908,#210);
#147=LINE('',#910,#211);
#148=LINE('',#911,#212);
#149=LINE('',#913,#213);
#150=LINE('',#914,#214);
#151=LINE('',#917,#215);
#152=LINE('',#919,#216);
#153=LINE('',#920,#217);
#154=LINE('',#923,#218);
#155=LINE('',#924,#219);
#156=LINE('',#929,#220);
#157=LINE('',#931,#221);
#158=LINE('',#933,#222);
#159=LINE('',#934,#223);
#160=LINE('',#940,#224);
#161=LINE('',#943,#225);
#162=LINE('',#945,#226);
#163=LINE('',#946,#227);
#164=LINE('',#952,#228);
#165=LINE('',#955,#229);
#166=LINE('',#957,#230);
#167=LINE('',#958,#231);
#168=LINE('',#964,#232);
#169=LINE('',#967,#233);
#170=LINE('',#969,#234);
#171=LINE('',#970,#235);
#172=LINE('',#976,#236);
#173=LINE('',#977,#237);
#174=LINE('',#979,#238);
#175=VECTOR('',#656,10.);
#176=VECTOR('',#657,10.);
#177=VECTOR('',#658,10.);
#178=VECTOR('',#659,10.);
#179=VECTOR('',#662,10.);
#180=VECTOR('',#663,10.);
#181=VECTOR('',#664,10.);
#182=VECTOR('',#667,10.);
#183=VECTOR('',#668,10.);
#184=VECTOR('',#669,10.);
#185=VECTOR('',#672,10.);
#186=VECTOR('',#673,10.);
#187=VECTOR('',#678,10.);
#188=VECTOR('',#679,10.);
#189=VECTOR('',#680,10.);
#190=VECTOR('',#681,10.);
#191=VECTOR('',#686,10.);
#192=VECTOR('',#691,10.);
#193=VECTOR('',#692,10.);
#194=VECTOR('',#693,10.);
#195=VECTOR('',#698,10.);
#196=VECTOR('',#703,10.);
#197=VECTOR('',#704,10.);
#198=VECTOR('',#705,10.);
#199=VECTOR('',#710,10.);
#200=VECTOR('',#715,10.);
#201=VECTOR('',#716,10.);
#202=VECTOR('',#717,10.);
#203=VECTOR('',#728,10.);
#204=VECTOR('',#729,10.);
#205=VECTOR('',#730,10.);
#206=VECTOR('',#731,10.);
#207=VECTOR('',#734,10.);
#208=VECTOR('',#735,10.);
#209=VECTOR('',#736,10.);
#210=VECTOR('',#739,10.);
#211=VECTOR('',#740,10.);
#212=VECTOR('',#741,10.);
#213=VECTOR('',#744,10.);
#214=VECTOR('',#745,10.);
#215=VECTOR('',#748,10.);
#216=VECTOR('',#749,10.);
#217=VECTOR('',#750,10.);
#218=VECTOR('',#753,10.);
#219=VECTOR('',#754,10.);
#220=VECTOR('',#759,10.);
#221=VECTOR('',#760,10.);
#222=VECTOR('',#761,10.);
#223=VECTOR('',#762,10.);
#224=VECTOR('',#769,10.);
#225=VECTOR('',#772,10.);
#226=VECTOR('',#773,10.);
#227=VECTOR('',#774,10.);
#228=VECTOR('',#781,10.);
#229=VECTOR('',#784,10.);
#230=VECTOR('',#785,10.);
#231=VECTOR('',#786,10.);
#232=VECTOR('',#793,10.);
#233=VECTOR('',#796,10.);
#234=VECTOR('',#797,10.);
#235=VECTOR('',#798,10.);
#236=VECTOR('',#807,10.);
#237=VECTOR('',#808,10.);
#238=VECTOR('',#811,10.);
#239=VERTEX_POINT('',#818);
#240=VERTEX_POINT('',#819);
#241=VERTEX_POINT('',#821);
#242=VERTEX_POINT('',#823);
#243=VERTEX_POINT('',#827);
#244=VERTEX_POINT('',#829);
#245=VERTEX_POINT('',#833);
#246=VERTEX_POINT('',#835);
#247=VERTEX_POINT('',#843);
#248=VERTEX_POINT('',#844);
#249=VERTEX_POINT('',#846);
#250=VERTEX_POINT('',#848);
#251=VERTEX_POINT('',#852);
#252=VERTEX_POINT('',#854);
#253=VERTEX_POINT('',#858);
#254=VERTEX_POINT('',#860);
#255=VERTEX_POINT('',#864);
#256=VERTEX_POINT('',#866);
#257=VERTEX_POINT('',#870);
#258=VERTEX_POINT('',#872);
#259=VERTEX_POINT('',#876);
#260=VERTEX_POINT('',#878);
#261=VERTEX_POINT('',#882);
#262=VERTEX_POINT('',#884);
#263=VERTEX_POINT('',#892);
#264=VERTEX_POINT('',#893);
#265=VERTEX_POINT('',#895);
#266=VERTEX_POINT('',#897);
#267=VERTEX_POINT('',#901);
#268=VERTEX_POINT('',#903);
#269=VERTEX_POINT('',#907);
#270=VERTEX_POINT('',#909);
#271=VERTEX_POINT('',#916);
#272=VERTEX_POINT('',#918);
#273=VERTEX_POINT('',#922);
#274=VERTEX_POINT('',#927);
#275=VERTEX_POINT('',#928);
#276=VERTEX_POINT('',#930);
#277=VERTEX_POINT('',#932);
#278=VERTEX_POINT('',#936);
#279=VERTEX_POINT('',#938);
#280=VERTEX_POINT('',#942);
#281=VERTEX_POINT('',#944);
#282=VERTEX_POINT('',#948);
#283=VERTEX_POINT('',#950);
#284=VERTEX_POINT('',#954);
#285=VERTEX_POINT('',#956);
#286=VERTEX_POINT('',#960);
#287=VERTEX_POINT('',#962);
#288=VERTEX_POINT('',#966);
#289=VERTEX_POINT('',#968);
#290=VERTEX_POINT('',#975);
#291=EDGE_CURVE('',#239,#240,#111,.T.);
#292=EDGE_CURVE('',#241,#240,#112,.F.);
#293=EDGE_CURVE('',#242,#241,#113,.T.);
#294=EDGE_CURVE('',#242,#239,#114,.T.);
#295=EDGE_CURVE('',#243,#239,#115,.T.);
#296=EDGE_CURVE('',#244,#242,#116,.T.);
#297=EDGE_CURVE('',#244,#243,#117,.T.);
#298=EDGE_CURVE('',#243,#245,#118,.T.);
#299=EDGE_CURVE('',#246,#244,#119,.F.);
#300=EDGE_CURVE('',#246,#245,#120,.F.);
#301=EDGE_CURVE('',#245,#240,#121,.T.);
#302=EDGE_CURVE('',#241,#246,#122,.F.);
#303=EDGE_CURVE('',#247,#248,#123,.T.);
#304=EDGE_CURVE('',#247,#249,#124,.T.);
#305=EDGE_CURVE('',#249,#250,#125,.F.);
#306=EDGE_CURVE('',#248,#250,#126,.T.);
#307=EDGE_CURVE('',#251,#247,#18,.T.);
#308=EDGE_CURVE('',#251,#252,#127,.T.);
#309=EDGE_CURVE('',#252,#249,#19,.F.);
#310=EDGE_CURVE('',#253,#251,#128,.T.);
#311=EDGE_CURVE('',#253,#254,#129,.T.);
#312=EDGE_CURVE('',#254,#252,#130,.F.);
#313=EDGE_CURVE('',#255,#253,#20,.T.);
#314=EDGE_CURVE('',#255,#256,#131,.T.);
#315=EDGE_CURVE('',#256,#254,#21,.F.);
#316=EDGE_CURVE('',#257,#255,#132,.T.);
#317=EDGE_CURVE('',#257,#258,#133,.T.);
#318=EDGE_CURVE('',#258,#256,#134,.F.);
#319=EDGE_CURVE('',#259,#257,#22,.T.);
#320=EDGE_CURVE('',#259,#260,#135,.T.);
#321=EDGE_CURVE('',#260,#258,#23,.F.);
#322=EDGE_CURVE('',#261,#259,#136,.T.);
#323=EDGE_CURVE('',#261,#262,#137,.T.);
#324=EDGE_CURVE('',#262,#260,#138,.F.);
#325=EDGE_CURVE('',#248,#261,#24,.T.);
#326=EDGE_CURVE('',#250,#262,#25,.F.);
#327=EDGE_CURVE('',#263,#264,#139,.T.);
#328=EDGE_CURVE('',#264,#265,#140,.T.);
#329=EDGE_CURVE('',#265,#266,#141,.T.);
#330=EDGE_CURVE('',#263,#266,#142,.T.);
#331=EDGE_CURVE('',#264,#267,#143,.T.);
#332=EDGE_CURVE('',#267,#268,#144,.T.);
#333=EDGE_CURVE('',#268,#265,#145,.T.);
#334=EDGE_CURVE('',#267,#269,#146,.T.);
#335=EDGE_CURVE('',#269,#270,#147,.T.);
#336=EDGE_CURVE('',#270,#268,#148,.T.);
#337=EDGE_CURVE('',#266,#270,#149,.T.);
#338=EDGE_CURVE('',#269,#263,#150,.T.);
#339=EDGE_CURVE('',#271,#266,#151,.T.);
#340=EDGE_CURVE('',#271,#272,#152,.T.);
#341=EDGE_CURVE('',#272,#270,#153,.T.);
#342=EDGE_CURVE('',#273,#265,#154,.T.);
#343=EDGE_CURVE('',#273,#271,#155,.T.);
#344=EDGE_CURVE('',#274,#275,#156,.T.);
#345=EDGE_CURVE('',#274,#276,#157,.T.);
#346=EDGE_CURVE('',#277,#276,#158,.T.);
#347=EDGE_CURVE('',#275,#277,#159,.T.);
#348=EDGE_CURVE('',#278,#275,#26,.T.);
#349=EDGE_CURVE('',#279,#277,#27,.T.);
#350=EDGE_CURVE('',#278,#279,#160,.T.);
#351=EDGE_CURVE('',#278,#280,#161,.T.);
#352=EDGE_CURVE('',#281,#279,#162,.T.);
#353=EDGE_CURVE('',#280,#281,#163,.T.);
#354=EDGE_CURVE('',#282,#280,#28,.T.);
#355=EDGE_CURVE('',#283,#281,#29,.T.);
#356=EDGE_CURVE('',#282,#283,#164,.T.);
#357=EDGE_CURVE('',#282,#284,#165,.T.);
#358=EDGE_CURVE('',#285,#283,#166,.T.);
#359=EDGE_CURVE('',#284,#285,#167,.T.);
#360=EDGE_CURVE('',#286,#284,#30,.T.);
#361=EDGE_CURVE('',#287,#285,#31,.T.);
#362=EDGE_CURVE('',#286,#287,#168,.T.);
#363=EDGE_CURVE('',#286,#288,#169,.T.);
#364=EDGE_CURVE('',#289,#287,#170,.T.);
#365=EDGE_CURVE('',#288,#289,#171,.T.);
#366=EDGE_CURVE('',#274,#288,#32,.T.);
#367=EDGE_CURVE('',#276,#289,#33,.T.);
#368=EDGE_CURVE('',#290,#273,#172,.T.);
#369=EDGE_CURVE('',#272,#290,#173,.T.);
#370=EDGE_CURVE('',#290,#268,#174,.T.);
#371=ORIENTED_EDGE('',*,*,#291,.T.);
#372=ORIENTED_EDGE('',*,*,#292,.F.);
#373=ORIENTED_EDGE('',*,*,#293,.F.);
#374=ORIENTED_EDGE('',*,*,#294,.T.);
#375=ORIENTED_EDGE('',*,*,#295,.T.);
#376=ORIENTED_EDGE('',*,*,#294,.F.);
#377=ORIENTED_EDGE('',*,*,#296,.F.);
#378=ORIENTED_EDGE('',*,*,#297,.T.);
#379=ORIENTED_EDGE('',*,*,#298,.F.);
#380=ORIENTED_EDGE('',*,*,#297,.F.);
#381=ORIENTED_EDGE('',*,*,#299,.F.);
#382=ORIENTED_EDGE('',*,*,#300,.T.);
#383=ORIENTED_EDGE('',*,*,#301,.F.);
#384=ORIENTED_EDGE('',*,*,#300,.F.);
#385=ORIENTED_EDGE('',*,*,#302,.F.);
#386=ORIENTED_EDGE('',*,*,#292,.T.);
#387=ORIENTED_EDGE('',*,*,#291,.F.);
#388=ORIENTED_EDGE('',*,*,#295,.F.);
#389=ORIENTED_EDGE('',*,*,#298,.T.);
#390=ORIENTED_EDGE('',*,*,#301,.T.);
#391=ORIENTED_EDGE('',*,*,#303,.F.);
#392=ORIENTED_EDGE('',*,*,#304,.T.);
#393=ORIENTED_EDGE('',*,*,#305,.T.);
#394=ORIENTED_EDGE('',*,*,#306,.F.);
#395=ORIENTED_EDGE('',*,*,#307,.F.);
#396=ORIENTED_EDGE('',*,*,#308,.T.);
#397=ORIENTED_EDGE('',*,*,#309,.T.);
#398=ORIENTED_EDGE('',*,*,#304,.F.);
#399=ORIENTED_EDGE('',*,*,#310,.F.);
#400=ORIENTED_EDGE('',*,*,#311,.T.);
#401=ORIENTED_EDGE('',*,*,#312,.T.);
#402=ORIENTED_EDGE('',*,*,#308,.F.);
#403=ORIENTED_EDGE('',*,*,#313,.F.);
#404=ORIENTED_EDGE('',*,*,#314,.T.);
#405=ORIENTED_EDGE('',*,*,#315,.T.);
#406=ORIENTED_EDGE('',*,*,#311,.F.);
#407=ORIENTED_EDGE('',*,*,#316,.F.);
#408=ORIENTED_EDGE('',*,*,#317,.T.);
#409=ORIENTED_EDGE('',*,*,#318,.T.);
#410=ORIENTED_EDGE('',*,*,#314,.F.);
#411=ORIENTED_EDGE('',*,*,#319,.F.);
#412=ORIENTED_EDGE('',*,*,#320,.T.);
#413=ORIENTED_EDGE('',*,*,#321,.T.);
#414=ORIENTED_EDGE('',*,*,#317,.F.);
#415=ORIENTED_EDGE('',*,*,#322,.F.);
#416=ORIENTED_EDGE('',*,*,#323,.T.);
#417=ORIENTED_EDGE('',*,*,#324,.T.);
#418=ORIENTED_EDGE('',*,*,#320,.F.);
#419=ORIENTED_EDGE('',*,*,#325,.F.);
#420=ORIENTED_EDGE('',*,*,#306,.T.);
#421=ORIENTED_EDGE('',*,*,#326,.T.);
#422=ORIENTED_EDGE('',*,*,#323,.F.);
#423=ORIENTED_EDGE('',*,*,#326,.F.);
#424=ORIENTED_EDGE('',*,*,#305,.F.);
#425=ORIENTED_EDGE('',*,*,#309,.F.);
#426=ORIENTED_EDGE('',*,*,#312,.F.);
#427=ORIENTED_EDGE('',*,*,#315,.F.);
#428=ORIENTED_EDGE('',*,*,#318,.F.);
#429=ORIENTED_EDGE('',*,*,#321,.F.);
#430=ORIENTED_EDGE('',*,*,#324,.F.);
#431=ORIENTED_EDGE('',*,*,#302,.T.);
#432=ORIENTED_EDGE('',*,*,#299,.T.);
#433=ORIENTED_EDGE('',*,*,#296,.T.);
#434=ORIENTED_EDGE('',*,*,#293,.T.);
#435=ORIENTED_EDGE('',*,*,#327,.T.);
#436=ORIENTED_EDGE('',*,*,#328,.T.);
#437=ORIENTED_EDGE('',*,*,#329,.T.);
#438=ORIENTED_EDGE('',*,*,#330,.F.);
#439=ORIENTED_EDGE('',*,*,#331,.T.);
#440=ORIENTED_EDGE('',*,*,#332,.T.);
#441=ORIENTED_EDGE('',*,*,#333,.T.);
#442=ORIENTED_EDGE('',*,*,#328,.F.);
#443=ORIENTED_EDGE('',*,*,#334,.T.);
#444=ORIENTED_EDGE('',*,*,#335,.T.);
#445=ORIENTED_EDGE('',*,*,#336,.T.);
#446=ORIENTED_EDGE('',*,*,#332,.F.);
#447=ORIENTED_EDGE('',*,*,#337,.T.);
#448=ORIENTED_EDGE('',*,*,#335,.F.);
#449=ORIENTED_EDGE('',*,*,#338,.T.);
#450=ORIENTED_EDGE('',*,*,#330,.T.);
#451=ORIENTED_EDGE('',*,*,#337,.F.);
#452=ORIENTED_EDGE('',*,*,#339,.F.);
#453=ORIENTED_EDGE('',*,*,#340,.T.);
#454=ORIENTED_EDGE('',*,*,#341,.T.);
#455=ORIENTED_EDGE('',*,*,#329,.F.);
#456=ORIENTED_EDGE('',*,*,#342,.F.);
#457=ORIENTED_EDGE('',*,*,#343,.T.);
#458=ORIENTED_EDGE('',*,*,#339,.T.);
#459=ORIENTED_EDGE('',*,*,#327,.F.);
#460=ORIENTED_EDGE('',*,*,#338,.F.);
#461=ORIENTED_EDGE('',*,*,#334,.F.);
#462=ORIENTED_EDGE('',*,*,#331,.F.);
#463=ORIENTED_EDGE('',*,*,#344,.F.);
#464=ORIENTED_EDGE('',*,*,#345,.T.);
#465=ORIENTED_EDGE('',*,*,#346,.F.);
#466=ORIENTED_EDGE('',*,*,#347,.F.);
#467=ORIENTED_EDGE('',*,*,#348,.T.);
#468=ORIENTED_EDGE('',*,*,#347,.T.);
#469=ORIENTED_EDGE('',*,*,#349,.F.);
#470=ORIENTED_EDGE('',*,*,#350,.F.);
#471=ORIENTED_EDGE('',*,*,#351,.F.);
#472=ORIENTED_EDGE('',*,*,#350,.T.);
#473=ORIENTED_EDGE('',*,*,#352,.F.);
#474=ORIENTED_EDGE('',*,*,#353,.F.);
#475=ORIENTED_EDGE('',*,*,#354,.T.);
#476=ORIENTED_EDGE('',*,*,#353,.T.);
#477=ORIENTED_EDGE('',*,*,#355,.F.);
#478=ORIENTED_EDGE('',*,*,#356,.F.);
#479=ORIENTED_EDGE('',*,*,#357,.F.);
#480=ORIENTED_EDGE('',*,*,#356,.T.);
#481=ORIENTED_EDGE('',*,*,#358,.F.);
#482=ORIENTED_EDGE('',*,*,#359,.F.);
#483=ORIENTED_EDGE('',*,*,#360,.T.);
#484=ORIENTED_EDGE('',*,*,#359,.T.);
#485=ORIENTED_EDGE('',*,*,#361,.F.);
#486=ORIENTED_EDGE('',*,*,#362,.F.);
#487=ORIENTED_EDGE('',*,*,#363,.F.);
#488=ORIENTED_EDGE('',*,*,#362,.T.);
#489=ORIENTED_EDGE('',*,*,#364,.F.);
#490=ORIENTED_EDGE('',*,*,#365,.F.);
#491=ORIENTED_EDGE('',*,*,#366,.T.);
#492=ORIENTED_EDGE('',*,*,#365,.T.);
#493=ORIENTED_EDGE('',*,*,#367,.F.);
#494=ORIENTED_EDGE('',*,*,#345,.F.);
#495=ORIENTED_EDGE('',*,*,#367,.T.);
#496=ORIENTED_EDGE('',*,*,#364,.T.);
#497=ORIENTED_EDGE('',*,*,#361,.T.);
#498=ORIENTED_EDGE('',*,*,#358,.T.);
#499=ORIENTED_EDGE('',*,*,#355,.T.);
#500=ORIENTED_EDGE('',*,*,#352,.T.);
#501=ORIENTED_EDGE('',*,*,#349,.T.);
#502=ORIENTED_EDGE('',*,*,#346,.T.);
#503=ORIENTED_EDGE('',*,*,#343,.F.);
#504=ORIENTED_EDGE('',*,*,#368,.F.);
#505=ORIENTED_EDGE('',*,*,#369,.F.);
#506=ORIENTED_EDGE('',*,*,#340,.F.);
#507=ORIENTED_EDGE('',*,*,#336,.F.);
#508=ORIENTED_EDGE('',*,*,#341,.F.);
#509=ORIENTED_EDGE('',*,*,#369,.T.);
#510=ORIENTED_EDGE('',*,*,#370,.T.);
#511=ORIENTED_EDGE('',*,*,#333,.F.);
#512=ORIENTED_EDGE('',*,*,#370,.F.);
#513=ORIENTED_EDGE('',*,*,#368,.T.);
#514=ORIENTED_EDGE('',*,*,#342,.T.);
#515=ORIENTED_EDGE('',*,*,#366,.F.);
#516=ORIENTED_EDGE('',*,*,#344,.T.);
#517=ORIENTED_EDGE('',*,*,#348,.F.);
#518=ORIENTED_EDGE('',*,*,#351,.T.);
#519=ORIENTED_EDGE('',*,*,#354,.F.);
#520=ORIENTED_EDGE('',*,*,#357,.T.);
#521=ORIENTED_EDGE('',*,*,#360,.F.);
#522=ORIENTED_EDGE('',*,*,#363,.T.);
#523=ORIENTED_EDGE('',*,*,#303,.T.);
#524=ORIENTED_EDGE('',*,*,#325,.T.);
#525=ORIENTED_EDGE('',*,*,#322,.T.);
#526=ORIENTED_EDGE('',*,*,#319,.T.);
#527=ORIENTED_EDGE('',*,*,#316,.T.);
#528=ORIENTED_EDGE('',*,*,#313,.T.);
#529=ORIENTED_EDGE('',*,*,#310,.T.);
#530=ORIENTED_EDGE('',*,*,#307,.T.);
#531=PLANE('',#603);
#532=PLANE('',#604);
#533=PLANE('',#605);
#534=PLANE('',#606);
#535=PLANE('',#607);
#536=PLANE('',#608);
#537=PLANE('',#612);
#538=PLANE('',#616);
#539=PLANE('',#620);
#540=PLANE('',#624);
#541=PLANE('',#625);
#542=PLANE('',#626);
#543=PLANE('',#627);
#544=PLANE('',#628);
#545=PLANE('',#629);
#546=PLANE('',#630);
#547=PLANE('',#631);
#548=PLANE('',#632);
#549=PLANE('',#636);
#550=PLANE('',#640);
#551=PLANE('',#644);
#552=PLANE('',#648);
#553=PLANE('',#649);
#554=PLANE('',#650);
#555=PLANE('',#651);
#556=ADVANCED_FACE('',(#42),#531,.F.);
#557=ADVANCED_FACE('',(#43),#532,.F.);
#558=ADVANCED_FACE('',(#44),#533,.F.);
#559=ADVANCED_FACE('',(#45),#534,.F.);
#560=ADVANCED_FACE('',(#46),#535,.F.);
#561=ADVANCED_FACE('',(#47),#536,.F.);
#562=ADVANCED_FACE('',(#48),#34,.F.);
#563=ADVANCED_FACE('',(#49),#537,.F.);
#564=ADVANCED_FACE('',(#50),#35,.F.);
#565=ADVANCED_FACE('',(#51),#538,.F.);
#566=ADVANCED_FACE('',(#52),#36,.F.);
#567=ADVANCED_FACE('',(#53),#539,.F.);
#568=ADVANCED_FACE('',(#54),#37,.F.);
#569=ADVANCED_FACE('',(#55,#15),#540,.F.);
#570=ADVANCED_FACE('',(#56),#541,.T.);
#571=ADVANCED_FACE('',(#57),#542,.T.);
#572=ADVANCED_FACE('',(#58),#543,.T.);
#573=ADVANCED_FACE('',(#59),#544,.T.);
#574=ADVANCED_FACE('',(#60),#545,.T.);
#575=ADVANCED_FACE('',(#61),#546,.T.);
#576=ADVANCED_FACE('',(#62),#547,.T.);
#577=ADVANCED_FACE('',(#63),#548,.T.);
#578=ADVANCED_FACE('',(#64),#38,.T.);
#579=ADVANCED_FACE('',(#65),#549,.T.);
#580=ADVANCED_FACE('',(#66),#39,.T.);
#581=ADVANCED_FACE('',(#67),#550,.T.);
#582=ADVANCED_FACE('',(#68),#40,.T.);
#583=ADVANCED_FACE('',(#69),#551,.T.);
#584=ADVANCED_FACE('',(#70),#41,.T.);
#585=ADVANCED_FACE('',(#71,#16),#552,.T.);
#586=ADVANCED_FACE('',(#72),#553,.T.);
#587=ADVANCED_FACE('',(#73),#554,.T.);
#588=ADVANCED_FACE('',(#74,#17),#555,.F.);
#589=CLOSED_SHELL('',(#556,#557,#558,#559,#560,#561,#562,#563,#564,#565,
#566,#567,#568,#569,#570,#571,#572,#573,#574,#575,#576,#577,#578,#579,#580,
#581,#582,#583,#584,#585,#586,#587,#588));
#590=DERIVED_UNIT_ELEMENT(#592,1.);
#591=DERIVED_UNIT_ELEMENT(#987,-3.);
#592=(
MASS_UNIT()
NAMED_UNIT(*)
SI_UNIT(.KILO.,.GRAM.)
);
#593=DERIVED_UNIT((#590,#591));
#594=MEASURE_REPRESENTATION_ITEM('density measure',
POSITIVE_RATIO_MEASURE(7850.),#593);
#595=PROPERTY_DEFINITION_REPRESENTATION(#600,#597);
#596=PROPERTY_DEFINITION_REPRESENTATION(#601,#598);
#597=REPRESENTATION('material name',(#599),#984);
#598=REPRESENTATION('density',(#594),#984);
#599=DESCRIPTIVE_REPRESENTATION_ITEM('Stahl','Stahl');
#600=PROPERTY_DEFINITION('material property','material name',#994);
#601=PROPERTY_DEFINITION('material property','density of part',#994);
#602=AXIS2_PLACEMENT_3D('',#816,#652,#653);
#603=AXIS2_PLACEMENT_3D('',#817,#654,#655);
#604=AXIS2_PLACEMENT_3D('',#826,#660,#661);
#605=AXIS2_PLACEMENT_3D('',#832,#665,#666);
#606=AXIS2_PLACEMENT_3D('',#838,#670,#671);
#607=AXIS2_PLACEMENT_3D('',#841,#674,#675);
#608=AXIS2_PLACEMENT_3D('',#842,#676,#677);
#609=AXIS2_PLACEMENT_3D('',#851,#682,#683);
#610=AXIS2_PLACEMENT_3D('',#853,#684,#685);
#611=AXIS2_PLACEMENT_3D('',#856,#687,#688);
#612=AXIS2_PLACEMENT_3D('',#857,#689,#690);
#613=AXIS2_PLACEMENT_3D('',#863,#694,#695);
#614=AXIS2_PLACEMENT_3D('',#865,#696,#697);
#615=AXIS2_PLACEMENT_3D('',#868,#699,#700);
#616=AXIS2_PLACEMENT_3D('',#869,#701,#702);
#617=AXIS2_PLACEMENT_3D('',#875,#706,#707);
#618=AXIS2_PLACEMENT_3D('',#877,#708,#709);
#619=AXIS2_PLACEMENT_3D('',#880,#711,#712);
#620=AXIS2_PLACEMENT_3D('',#881,#713,#714);
#621=AXIS2_PLACEMENT_3D('',#887,#718,#719);
#622=AXIS2_PLACEMENT_3D('',#888,#720,#721);
#623=AXIS2_PLACEMENT_3D('',#889,#722,#723);
#624=AXIS2_PLACEMENT_3D('',#890,#724,#725);
#625=AXIS2_PLACEMENT_3D('',#891,#726,#727);
#626=AXIS2_PLACEMENT_3D('',#900,#732,#733);
#627=AXIS2_PLACEMENT_3D('',#906,#737,#738);
#628=AXIS2_PLACEMENT_3D('',#912,#742,#743);
#629=AXIS2_PLACEMENT_3D('',#915,#746,#747);
#630=AXIS2_PLACEMENT_3D('',#921,#751,#752);
#631=AXIS2_PLACEMENT_3D('',#925,#755,#756);
#632=AXIS2_PLACEMENT_3D('',#926,#757,#758);
#633=AXIS2_PLACEMENT_3D('',#935,#763,#764);
#634=AXIS2_PLACEMENT_3D('',#937,#765,#766);
#635=AXIS2_PLACEMENT_3D('',#939,#767,#768);
#636=AXIS2_PLACEMENT_3D('',#941,#770,#771);
#637=AXIS2_PLACEMENT_3D('',#947,#775,#776);
#638=AXIS2_PLACEMENT_3D('',#949,#777,#778);
#639=AXIS2_PLACEMENT_3D('',#951,#779,#780);
#640=AXIS2_PLACEMENT_3D('',#953,#782,#783);
#641=AXIS2_PLACEMENT_3D('',#959,#787,#788);
#642=AXIS2_PLACEMENT_3D('',#961,#789,#790);
#643=AXIS2_PLACEMENT_3D('',#963,#791,#792);
#644=AXIS2_PLACEMENT_3D('',#965,#794,#795);
#645=AXIS2_PLACEMENT_3D('',#971,#799,#800);
#646=AXIS2_PLACEMENT_3D('',#972,#801,#802);
#647=AXIS2_PLACEMENT_3D('',#973,#803,#804);
#648=AXIS2_PLACEMENT_3D('',#974,#805,#806);
#649=AXIS2_PLACEMENT_3D('',#978,#809,#810);
#650=AXIS2_PLACEMENT_3D('',#980,#812,#813);
#651=AXIS2_PLACEMENT_3D('',#981,#814,#815);
#652=DIRECTION('axis',(0.,0.,1.));
#653=DIRECTION('refdir',(1.,0.,0.));
#654=DIRECTION('center_axis',(-1.,0.,0.));
#655=DIRECTION('ref_axis',(0.,-1.,0.));
#656=DIRECTION('',(0.,-1.,0.));
#657=DIRECTION('',(0.,0.,-1.));
#658=DIRECTION('',(0.,-1.,0.));
#659=DIRECTION('',(0.,0.,1.));
#660=DIRECTION('center_axis',(0.,1.,0.));
#661=DIRECTION('ref_axis',(-1.,0.,0.));
#662=DIRECTION('',(-1.,0.,0.));
#663=DIRECTION('',(-1.,0.,0.));
#664=DIRECTION('',(0.,0.,1.));
#665=DIRECTION('center_axis',(1.,0.,0.));
#666=DIRECTION('ref_axis',(0.,1.,0.));
#667=DIRECTION('',(0.,-1.,0.));
#668=DIRECTION('',(0.,-1.,0.));
#669=DIRECTION('',(0.,0.,-1.));
#670=DIRECTION('center_axis',(0.,-1.,0.));
#671=DIRECTION('ref_axis',(1.,0.,0.));
#672=DIRECTION('',(-1.,0.,0.));
#673=DIRECTION('',(-1.,0.,0.));
#674=DIRECTION('center_axis',(0.,0.,1.));
#675=DIRECTION('ref_axis',(1.,0.,0.));
#676=DIRECTION('center_axis',(-4.14262322621327E-17,1.,0.));
#677=DIRECTION('ref_axis',(-1.,-4.14262322621327E-17,0.));
#678=DIRECTION('',(-1.,-4.14262322621327E-17,0.));
#679=DIRECTION('',(0.,0.,1.));
#680=DIRECTION('',(1.,4.14262322621327E-17,0.));
#681=DIRECTION('',(0.,0.,1.));
#682=DIRECTION('center_axis',(0.,0.,1.));
#683=DIRECTION('ref_axis',(1.,0.,0.));
#684=DIRECTION('center_axis',(0.,0.,1.));
#685=DIRECTION('ref_axis',(1.,0.,0.));
#686=DIRECTION('',(0.,0.,1.));
#687=DIRECTION('center_axis',(0.,0.,-1.));
#688=DIRECTION('ref_axis',(1.,0.,0.));
#689=DIRECTION('center_axis',(1.,0.,0.));
#690=DIRECTION('ref_axis',(0.,1.,0.));
#691=DIRECTION('',(0.,1.,0.));
#692=DIRECTION('',(0.,0.,1.));
#693=DIRECTION('',(0.,-1.,0.));
#694=DIRECTION('center_axis',(0.,0.,1.));
#695=DIRECTION('ref_axis',(0.,-1.,0.));
#696=DIRECTION('center_axis',(0.,0.,1.));
#697=DIRECTION('ref_axis',(0.,-1.,0.));
#698=DIRECTION('',(0.,0.,1.));
#699=DIRECTION('center_axis',(0.,0.,-1.));
#700=DIRECTION('ref_axis',(0.,-1.,0.));
#701=DIRECTION('center_axis',(0.,-1.,0.));
#702=DIRECTION('ref_axis',(1.,0.,0.));
#703=DIRECTION('',(1.,0.,0.));
#704=DIRECTION('',(0.,0.,1.));
#705=DIRECTION('',(-1.,0.,0.));
#706=DIRECTION('center_axis',(0.,0.,1.));
#707=DIRECTION('ref_axis',(-1.,0.,0.));
#708=DIRECTION('center_axis',(0.,0.,1.));
#709=DIRECTION('ref_axis',(-1.,0.,0.));
#710=DIRECTION('',(0.,0.,1.));
#711=DIRECTION('center_axis',(0.,0.,-1.));
#712=DIRECTION('ref_axis',(-1.,0.,0.));
#713=DIRECTION('center_axis',(-1.,0.,0.));
#714=DIRECTION('ref_axis',(0.,-1.,0.));
#715=DIRECTION('',(0.,-1.,0.));
#716=DIRECTION('',(0.,0.,1.));
#717=DIRECTION('',(0.,1.,0.));
#718=DIRECTION('center_axis',(0.,0.,1.));
#719=DIRECTION('ref_axis',(0.,1.,0.));
#720=DIRECTION('center_axis',(0.,0.,1.));
#721=DIRECTION('ref_axis',(0.,1.,0.));
#722=DIRECTION('center_axis',(0.,0.,-1.));
#723=DIRECTION('ref_axis',(0.,1.,0.));
#724=DIRECTION('center_axis',(0.,0.,1.));
#725=DIRECTION('ref_axis',(1.,0.,0.));
#726=DIRECTION('center_axis',(0.,-0.707106781186548,0.707106781186547));
#727=DIRECTION('ref_axis',(1.,0.,0.));
#728=DIRECTION('',(-1.,0.,0.));
#729=DIRECTION('',(-0.577350269189626,-0.577350269189626,-0.577350269189626));
#730=DIRECTION('',(1.,0.,0.));
#731=DIRECTION('',(0.577350269189625,-0.577350269189626,-0.577350269189626));
#732=DIRECTION('center_axis',(-0.707106781186548,0.,0.707106781186548));
#733=DIRECTION('ref_axis',(0.707106781186548,0.,0.707106781186548));
#734=DIRECTION('',(0.,1.,0.));
#735=DIRECTION('',(-0.577350269189625,0.577350269189626,-0.577350269189626));
#736=DIRECTION('',(0.,-1.,0.));
#737=DIRECTION('center_axis',(0.,0.707106781186548,0.707106781186547));
#738=DIRECTION('ref_axis',(1.,0.,0.));
#739=DIRECTION('',(1.,0.,0.));
#740=DIRECTION('',(0.577350269189626,0.577350269189626,-0.577350269189626));
#741=DIRECTION('',(-1.,0.,0.));
#742=DIRECTION('center_axis',(0.707106781186548,0.,0.707106781186548));
#743=DIRECTION('ref_axis',(0.707106781186548,0.,-0.707106781186548));
#744=DIRECTION('',(0.,1.,0.));
#745=DIRECTION('',(0.,-1.,0.));
#746=DIRECTION('center_axis',(1.,0.,0.));
#747=DIRECTION('ref_axis',(0.,1.,0.));
#748=DIRECTION('',(0.,0.,1.));
#749=DIRECTION('',(0.,1.,0.));
#750=DIRECTION('',(0.,0.,1.));
#751=DIRECTION('center_axis',(0.,-1.,0.));
#752=DIRECTION('ref_axis',(1.,0.,0.));
#753=DIRECTION('',(0.,0.,1.));
#754=DIRECTION('',(1.,0.,0.));
#755=DIRECTION('center_axis',(0.,0.,1.));
#756=DIRECTION('ref_axis',(1.,0.,0.));
#757=DIRECTION('center_axis',(-4.14262322621327E-17,1.,0.));
#758=DIRECTION('ref_axis',(-1.,-4.14262322621327E-17,0.));
#759=DIRECTION('',(1.,4.14262322621327E-17,0.));
#760=DIRECTION('',(0.,0.,1.));
#761=DIRECTION('',(-1.,-4.14262322621327E-17,0.));
#762=DIRECTION('',(0.,0.,1.));
#763=DIRECTION('center_axis',(0.,0.,1.));
#764=DIRECTION('ref_axis',(1.,0.,0.));
#765=DIRECTION('center_axis',(0.,0.,1.));
#766=DIRECTION('ref_axis',(1.,0.,0.));
#767=DIRECTION('center_axis',(0.,0.,1.));
#768=DIRECTION('ref_axis',(1.,0.,0.));
#769=DIRECTION('',(0.,0.,1.));
#770=DIRECTION('center_axis',(1.,0.,0.));
#771=DIRECTION('ref_axis',(0.,1.,0.));
#772=DIRECTION('',(0.,-1.,0.));
#773=DIRECTION('',(0.,1.,0.));
#774=DIRECTION('',(0.,0.,1.));
#775=DIRECTION('center_axis',(0.,0.,1.));
#776=DIRECTION('ref_axis',(0.,-1.,0.));
#777=DIRECTION('center_axis',(0.,0.,1.));
#778=DIRECTION('ref_axis',(0.,-1.,0.));
#779=DIRECTION('center_axis',(0.,0.,1.));
#780=DIRECTION('ref_axis',(0.,-1.,0.));
#781=DIRECTION('',(0.,0.,1.));
#782=DIRECTION('center_axis',(0.,-1.,0.));
#783=DIRECTION('ref_axis',(1.,0.,0.));
#784=DIRECTION('',(-1.,0.,0.));
#785=DIRECTION('',(1.,0.,0.));
#786=DIRECTION('',(0.,0.,1.));
#787=DIRECTION('center_axis',(0.,0.,1.));
#788=DIRECTION('ref_axis',(-1.,0.,0.));
#789=DIRECTION('center_axis',(0.,0.,1.));
#790=DIRECTION('ref_axis',(-1.,0.,0.));
#791=DIRECTION('center_axis',(0.,0.,1.));
#792=DIRECTION('ref_axis',(-1.,0.,0.));
#793=DIRECTION('',(0.,0.,1.));
#794=DIRECTION('center_axis',(-1.,0.,0.));
#795=DIRECTION('ref_axis',(0.,-1.,0.));
#796=DIRECTION('',(0.,1.,0.));
#797=DIRECTION('',(0.,-1.,0.));
#798=DIRECTION('',(0.,0.,1.));
#799=DIRECTION('center_axis',(0.,0.,1.));
#800=DIRECTION('ref_axis',(0.,1.,0.));
#801=DIRECTION('center_axis',(0.,0.,1.));
#802=DIRECTION('ref_axis',(0.,1.,0.));
#803=DIRECTION('center_axis',(0.,0.,1.));
#804=DIRECTION('ref_axis',(0.,1.,0.));
#805=DIRECTION('center_axis',(0.,0.,1.));
#806=DIRECTION('ref_axis',(1.,0.,0.));
#807=DIRECTION('',(0.,-1.,0.));
#808=DIRECTION('',(-1.,0.,0.));
#809=DIRECTION('center_axis',(0.,1.,0.));
#810=DIRECTION('ref_axis',(-1.,0.,0.));
#811=DIRECTION('',(0.,0.,1.));
#812=DIRECTION('center_axis',(-1.,0.,0.));
#813=DIRECTION('ref_axis',(0.,-1.,0.));
#814=DIRECTION('center_axis',(0.,0.,1.));
#815=DIRECTION('ref_axis',(1.,0.,0.));
#816=CARTESIAN_POINT('',(0.,0.,0.));
#817=CARTESIAN_POINT('Origin',(-5.5,1.8,0.));
#818=CARTESIAN_POINT('',(-5.5,1.,13.4));
#819=CARTESIAN_POINT('',(-5.5,-1.,13.4));
#820=CARTESIAN_POINT('',(-5.5,0.9,13.4));
#821=CARTESIAN_POINT('',(-5.5,-1.,0.7));
#822=CARTESIAN_POINT('',(-5.5,-1.,0.));
#823=CARTESIAN_POINT('',(-5.5,1.,0.7));
#824=CARTESIAN_POINT('',(-5.5,0.9,0.7));
#825=CARTESIAN_POINT('',(-5.5,1.,0.));
#826=CARTESIAN_POINT('Origin',(6.3,1.,0.));
#827=CARTESIAN_POINT('',(5.5,1.,13.4));
#828=CARTESIAN_POINT('',(3.15,1.,13.4));
#829=CARTESIAN_POINT('',(5.5,1.,0.7));
#830=CARTESIAN_POINT('',(3.15,1.,0.7));
#831=CARTESIAN_POINT('',(5.5,1.,0.));
#832=CARTESIAN_POINT('Origin',(5.5,-1.8,0.));
#833=CARTESIAN_POINT('',(5.5,-1.,13.4));
#834=CARTESIAN_POINT('',(5.5,-0.9,13.4));
#835=CARTESIAN_POINT('',(5.5,-1.,0.7));
#836=CARTESIAN_POINT('',(5.5,-0.9,0.7));
#837=CARTESIAN_POINT('',(5.5,-1.,0.));
#838=CARTESIAN_POINT('Origin',(-6.3,-1.,0.));
#839=CARTESIAN_POINT('',(-3.15,-1.,13.4));
#840=CARTESIAN_POINT('',(-3.15,-1.,0.7));
#841=CARTESIAN_POINT('Origin',(0.,0.,13.4));
#842=CARTESIAN_POINT('Origin',(6.7,2.4,0.));
#843=CARTESIAN_POINT('',(6.7,2.4,0.));
#844=CARTESIAN_POINT('',(-6.7,2.4,0.));
#845=CARTESIAN_POINT('',(3.35,2.4,0.));
#846=CARTESIAN_POINT('',(6.7,2.4,0.7));
#847=CARTESIAN_POINT('',(6.7,2.4,0.));
#848=CARTESIAN_POINT('',(-6.7,2.4,0.7));
#849=CARTESIAN_POINT('',(3.35,2.4,0.7));
#850=CARTESIAN_POINT('',(-6.7,2.4,0.));
#851=CARTESIAN_POINT('Origin',(6.7,2.2,0.));
#852=CARTESIAN_POINT('',(6.9,2.2,0.));
#853=CARTESIAN_POINT('Origin',(6.7,2.2,0.));
#854=CARTESIAN_POINT('',(6.9,2.2,0.7));
#855=CARTESIAN_POINT('',(6.9,2.2,0.));
#856=CARTESIAN_POINT('Origin',(6.7,2.2,0.7));
#857=CARTESIAN_POINT('Origin',(6.9,-2.2,0.));
#858=CARTESIAN_POINT('',(6.9,-2.2,0.));
#859=CARTESIAN_POINT('',(6.9,-1.1,0.));
#860=CARTESIAN_POINT('',(6.9,-2.2,0.7));
#861=CARTESIAN_POINT('',(6.9,-2.2,0.));
#862=CARTESIAN_POINT('',(6.9,-1.1,0.7));
#863=CARTESIAN_POINT('Origin',(6.7,-2.2,0.));
#864=CARTESIAN_POINT('',(6.7,-2.4,0.));
#865=CARTESIAN_POINT('Origin',(6.7,-2.2,0.));
#866=CARTESIAN_POINT('',(6.7,-2.4,0.7));
#867=CARTESIAN_POINT('',(6.7,-2.4,0.));
#868=CARTESIAN_POINT('Origin',(6.7,-2.2,0.7));
#869=CARTESIAN_POINT('Origin',(-6.7,-2.4,0.));
#870=CARTESIAN_POINT('',(-6.7,-2.4,0.));
#871=CARTESIAN_POINT('',(-3.35,-2.4,0.));
#872=CARTESIAN_POINT('',(-6.7,-2.4,0.7));
#873=CARTESIAN_POINT('',(-6.7,-2.4,0.));
#874=CARTESIAN_POINT('',(-3.35,-2.4,0.7));
#875=CARTESIAN_POINT('Origin',(-6.7,-2.2,0.));
#876=CARTESIAN_POINT('',(-6.9,-2.2,0.));
#877=CARTESIAN_POINT('Origin',(-6.7,-2.2,0.));
#878=CARTESIAN_POINT('',(-6.9,-2.2,0.7));
#879=CARTESIAN_POINT('',(-6.9,-2.2,0.));
#880=CARTESIAN_POINT('Origin',(-6.7,-2.2,0.7));
#881=CARTESIAN_POINT('Origin',(-6.9,2.2,0.));
#882=CARTESIAN_POINT('',(-6.9,2.2,0.));
#883=CARTESIAN_POINT('',(-6.9,1.1,0.));
#884=CARTESIAN_POINT('',(-6.9,2.2,0.7));
#885=CARTESIAN_POINT('',(-6.9,2.2,0.));
#886=CARTESIAN_POINT('',(-6.9,1.1,0.7));
#887=CARTESIAN_POINT('Origin',(-6.7,2.2,0.));
#888=CARTESIAN_POINT('Origin',(-6.7,2.2,0.));
#889=CARTESIAN_POINT('Origin',(-6.7,2.2,0.7));
#890=CARTESIAN_POINT('Origin',(0.,-5.55111512312578E-16,0.7));
#891=CARTESIAN_POINT('Origin',(-3.15,-1.6,14.));
#892=CARTESIAN_POINT('',(5.9,-1.4,14.2));
#893=CARTESIAN_POINT('',(-5.9,-1.4,14.2));
#894=CARTESIAN_POINT('',(-3.15,-1.4,14.2));
#895=CARTESIAN_POINT('',(-6.3,-1.8,13.8));
#896=CARTESIAN_POINT('',(-5.9,-1.4,14.2));
#897=CARTESIAN_POINT('',(6.3,-1.8,13.8));
#898=CARTESIAN_POINT('',(-3.15,-1.8,13.8));
#899=CARTESIAN_POINT('',(5.9,-1.4,14.2));
#900=CARTESIAN_POINT('Origin',(-6.1,0.9,14.));
#901=CARTESIAN_POINT('',(-5.9,1.4,14.2));
#902=CARTESIAN_POINT('',(-5.9,0.9,14.2));
#903=CARTESIAN_POINT('',(-6.3,1.8,13.8));
#904=CARTESIAN_POINT('',(-5.9,1.4,14.2));
#905=CARTESIAN_POINT('',(-6.3,0.9,13.8));
#906=CARTESIAN_POINT('Origin',(3.15,1.6,14.));
#907=CARTESIAN_POINT('',(5.9,1.4,14.2));
#908=CARTESIAN_POINT('',(3.15,1.4,14.2));
#909=CARTESIAN_POINT('',(6.3,1.8,13.8));
#910=CARTESIAN_POINT('',(5.9,1.4,14.2));
#911=CARTESIAN_POINT('',(3.15,1.8,13.8));
#912=CARTESIAN_POINT('Origin',(6.1,-0.9,14.));
#913=CARTESIAN_POINT('',(6.3,-0.9,13.8));
#914=CARTESIAN_POINT('',(5.9,-0.9,14.2));
#915=CARTESIAN_POINT('Origin',(6.3,-1.8,0.));
#916=CARTESIAN_POINT('',(6.3,-1.8,1.5));
#917=CARTESIAN_POINT('',(6.3,-1.8,0.));
#918=CARTESIAN_POINT('',(6.3,1.8,1.5));
#919=CARTESIAN_POINT('',(6.3,-0.9,1.5));
#920=CARTESIAN_POINT('',(6.3,1.8,0.));
#921=CARTESIAN_POINT('Origin',(-6.3,-1.8,0.));
#922=CARTESIAN_POINT('',(-6.3,-1.8,1.5));
#923=CARTESIAN_POINT('',(-6.3,-1.8,0.));
#924=CARTESIAN_POINT('',(-3.15,-1.8,1.5));
#925=CARTESIAN_POINT('Origin',(0.,0.,14.2));
#926=CARTESIAN_POINT('Origin',(6.7,3.2,0.));
#927=CARTESIAN_POINT('',(-6.7,3.2,0.));
#928=CARTESIAN_POINT('',(6.7,3.2,0.));
#929=CARTESIAN_POINT('',(-6.7,3.2,0.));
#930=CARTESIAN_POINT('',(-6.7,3.2,1.5));
#931=CARTESIAN_POINT('',(-6.7,3.2,0.));
#932=CARTESIAN_POINT('',(6.7,3.2,1.5));
#933=CARTESIAN_POINT('',(-6.7,3.2,1.5));
#934=CARTESIAN_POINT('',(6.7,3.2,0.));
#935=CARTESIAN_POINT('Origin',(6.7,2.2,0.));
#936=CARTESIAN_POINT('',(7.7,2.2,0.));
#937=CARTESIAN_POINT('Origin',(6.7,2.2,0.));
#938=CARTESIAN_POINT('',(7.7,2.2,1.5));
#939=CARTESIAN_POINT('Origin',(6.7,2.2,1.5));
#940=CARTESIAN_POINT('',(7.7,2.2,0.));
#941=CARTESIAN_POINT('Origin',(7.7,-2.2,0.));
#942=CARTESIAN_POINT('',(7.7,-2.2,0.));
#943=CARTESIAN_POINT('',(7.7,2.2,0.));
#944=CARTESIAN_POINT('',(7.7,-2.2,1.5));
#945=CARTESIAN_POINT('',(7.7,2.2,1.5));
#946=CARTESIAN_POINT('',(7.7,-2.2,0.));
#947=CARTESIAN_POINT('Origin',(6.7,-2.2,0.));
#948=CARTESIAN_POINT('',(6.7,-3.2,0.));
#949=CARTESIAN_POINT('Origin',(6.7,-2.2,0.));
#950=CARTESIAN_POINT('',(6.7,-3.2,1.5));
#951=CARTESIAN_POINT('Origin',(6.7,-2.2,1.5));
#952=CARTESIAN_POINT('',(6.7,-3.2,0.));
#953=CARTESIAN_POINT('Origin',(-6.7,-3.2,0.));
#954=CARTESIAN_POINT('',(-6.7,-3.2,0.));
#955=CARTESIAN_POINT('',(6.7,-3.2,0.));
#956=CARTESIAN_POINT('',(-6.7,-3.2,1.5));
#957=CARTESIAN_POINT('',(6.7,-3.2,1.5));
#958=CARTESIAN_POINT('',(-6.7,-3.2,0.));
#959=CARTESIAN_POINT('Origin',(-6.7,-2.2,0.));
#960=CARTESIAN_POINT('',(-7.7,-2.2,0.));
#961=CARTESIAN_POINT('Origin',(-6.7,-2.2,0.));
#962=CARTESIAN_POINT('',(-7.7,-2.2,1.5));
#963=CARTESIAN_POINT('Origin',(-6.7,-2.2,1.5));
#964=CARTESIAN_POINT('',(-7.7,-2.2,0.));
#965=CARTESIAN_POINT('Origin',(-7.7,2.2,0.));
#966=CARTESIAN_POINT('',(-7.7,2.2,0.));
#967=CARTESIAN_POINT('',(-7.7,-2.2,0.));
#968=CARTESIAN_POINT('',(-7.7,2.2,1.5));
#969=CARTESIAN_POINT('',(-7.7,-2.2,1.5));
#970=CARTESIAN_POINT('',(-7.7,2.2,0.));
#971=CARTESIAN_POINT('Origin',(-6.7,2.2,0.));
#972=CARTESIAN_POINT('Origin',(-6.7,2.2,0.));
#973=CARTESIAN_POINT('Origin',(-6.7,2.2,1.5));
#974=CARTESIAN_POINT('Origin',(0.,-5.55111512312578E-16,1.5));
#975=CARTESIAN_POINT('',(-6.3,1.8,1.5));
#976=CARTESIAN_POINT('',(-6.3,0.9,1.5));
#977=CARTESIAN_POINT('',(3.15,1.8,1.5));
#978=CARTESIAN_POINT('Origin',(6.3,1.8,0.));
#979=CARTESIAN_POINT('',(-6.3,1.8,0.));
#980=CARTESIAN_POINT('Origin',(-6.3,1.8,0.));
#981=CARTESIAN_POINT('Origin',(0.,0.,0.));
#982=UNCERTAINTY_MEASURE_WITH_UNIT(LENGTH_MEASURE(0.01),#986,
'DISTANCE_ACCURACY_VALUE',
'Maximum model space distance between geometric entities at asserted c
onnectivities');
#983=UNCERTAINTY_MEASURE_WITH_UNIT(LENGTH_MEASURE(0.01),#986,
'DISTANCE_ACCURACY_VALUE',
'Maximum model space distance between geometric entities at asserted c
onnectivities');
#984=(
GEOMETRIC_REPRESENTATION_CONTEXT(3)
GLOBAL_UNCERTAINTY_ASSIGNED_CONTEXT((#982))
GLOBAL_UNIT_ASSIGNED_CONTEXT((#986,#988,#989))
REPRESENTATION_CONTEXT('','3D')
);
#985=(
GEOMETRIC_REPRESENTATION_CONTEXT(3)
GLOBAL_UNCERTAINTY_ASSIGNED_CONTEXT((#983))
GLOBAL_UNIT_ASSIGNED_CONTEXT((#986,#988,#989))
REPRESENTATION_CONTEXT('','3D')
);
#986=(
LENGTH_UNIT()
NAMED_UNIT(*)
SI_UNIT(.MILLI.,.METRE.)
);
#987=(
LENGTH_UNIT()
NAMED_UNIT(*)
SI_UNIT($,.METRE.)
);
#988=(
NAMED_UNIT(*)
PLANE_ANGLE_UNIT()
SI_UNIT($,.RADIAN.)
);
#989=(
NAMED_UNIT(*)
SI_UNIT($,.STERADIAN.)
SOLID_ANGLE_UNIT()
);
#990=SHAPE_DEFINITION_REPRESENTATION(#991,#992);
#991=PRODUCT_DEFINITION_SHAPE('',$,#994);
#992=SHAPE_REPRESENTATION('',(#602),#984);
#993=PRODUCT_DEFINITION_CONTEXT('part definition',#998,'design');
#994=PRODUCT_DEFINITION('Atari 800 Power LED Cover',
'Atari 800 Power LED Cover v3',#995,#993);
#995=PRODUCT_DEFINITION_FORMATION('',$,#1000);
#996=PRODUCT_RELATED_PRODUCT_CATEGORY('Atari 800 Power LED Cover v3',
'Atari 800 Power LED Cover v3',(#1000));
#997=APPLICATION_PROTOCOL_DEFINITION('international standard',
'automotive_design',2009,#998);
#998=APPLICATION_CONTEXT(
'Core Data for Automotive Mechanical Design Process');
#999=PRODUCT_CONTEXT('part definition',#998,'mechanical');
#1000=PRODUCT('Atari 800 Power LED Cover',
'Atari 800 Power LED Cover v3',$,(#999));
#1001=PRESENTATION_STYLE_ASSIGNMENT((#1002));
#1002=SURFACE_STYLE_USAGE(.BOTH.,#1003);
#1003=SURFACE_SIDE_STYLE('',(#1004));
#1004=SURFACE_STYLE_FILL_AREA(#1005);
#1005=FILL_AREA_STYLE('Stahl - satiniert',(#1006));
#1006=FILL_AREA_STYLE_COLOUR('Stahl - satiniert',#1007);
#1007=COLOUR_RGB('Stahl - satiniert',0.627450980392157,0.627450980392157,
0.627450980392157);
ENDSEC;
END-ISO-10303-21;
